<svg width="28" height="40" viewBox="0 0 28 40" fill="none" xmlns="http://www.w3.org/2000/svg">
<g clip-path="url(#clip0_98_1435)">
<path d="M26.1988 6.56975H20.3769V3.66277H26.1988C27.0023 3.66277 27.6543 4.31248 27.6543 5.11626C27.6543 5.91859 27.0023 6.56975 26.1988 6.56975ZM7.27745 6.56975H1.45549C0.650604 6.56975 0 5.91859 0 5.11626C0 4.31248 0.650604 3.66277 1.45549 3.66277H7.27745V6.56975ZM13.8272 10.2035C11.0122 10.2035 8.73294 7.92585 8.73294 5.11626C8.73294 2.30522 11.0122 0.0290527 13.8272 0.0290527C16.6421 0.0290527 18.9214 2.30522 18.9214 5.11626C18.9214 7.92585 16.6406 10.2035 13.8272 10.2035ZM13.8272 2.20929C12.2203 2.20929 10.9162 3.51161 10.9162 5.11626C10.9162 6.72091 12.2203 8.02324 13.8272 8.02324C15.434 8.02324 16.7381 6.72091 16.7381 5.11626C16.7381 3.51161 15.434 2.20929 13.8272 2.20929ZM8.89596 8.17731C9.92354 9.82411 11.74 10.9302 13.8272 10.9302C15.9143 10.9302 17.7293 9.82411 18.7584 8.17731C21.3491 8.76597 23.2878 11.0712 23.2878 13.8372V28.3721C23.2878 31.077 21.4277 33.3314 18.9214 33.9796V26.1003C18.9214 23.2907 16.6406 21.0131 13.8272 21.0131C11.0137 21.0131 8.73294 23.2907 8.73294 26.1003V33.9796C6.22513 33.3314 4.36647 31.077 4.36647 28.3721V13.8372C4.36647 11.0712 6.30519 8.76597 8.89596 8.17731ZM13.8272 22.5581C15.8372 22.5581 17.4659 24.1846 17.4659 26.1918V36.3663C17.4659 38.3735 15.8372 40 13.8272 40C11.8171 40 10.1884 38.3735 10.1884 36.3663V26.1918C10.1884 24.1846 11.8171 22.5581 13.8272 22.5581Z" fill="black"/>
</g>
<defs>
<clipPath id="clip0_98_1435">
<rect width="27.6543" height="40" fill="white"/>
</clipPath>
</defs>
</svg>
