<svg width="134" height="134" viewBox="0 0 134 134" fill="none" xmlns="http://www.w3.org/2000/svg">
<circle cx="67" cy="67" r="67" fill="#F5F5F8"/>
<mask id="mask0_279_2049" style="mask-type:alpha" maskUnits="userSpaceOnUse" x="0" y="0" width="134" height="134">
<circle cx="67" cy="67" r="67" fill="#F5F5F8"/>
</mask>
<g mask="url(#mask0_279_2049)">
<path d="M67 27C74.1608 27 81.0284 29.8446 86.0919 34.9081C91.1554 39.9716 94 46.8392 94 54C94 61.1608 91.1554 68.0284 86.0919 73.0919C81.0284 78.1554 74.1608 81 67 81C59.8392 81 52.9716 78.1554 47.9081 73.0919C42.8446 68.0284 40 61.1608 40 54C40 46.8392 42.8446 39.9716 47.9081 34.9081C52.9716 29.8446 59.8392 27 67 27ZM67 94.5C96.835 94.5 121 106.582 121 121.5V135H13V121.5C13 106.582 37.165 94.5 67 94.5Z" fill="#E7E7E9"/>
</g>
</svg>
